Exp "exp(x)" "exp(x)" "exp(x)"
Sin "sin(x)" "cos(x)" "-sin(x)"
Cos "cos(x)" "-sin(x)" "-cos(x)"
Tan "tan(x)" "pow(1.0\/cos(x),2)" "pow(1.0\/cos(x),2)"
Csc "1\/sin(x)" "-1.0*(cos(x)\/pow(sin(x),2.0))" "1.0\/sin(x)+1.0*pow(cos(x),2.0)\/pow(sin(x),3.0)"
Sec "1\/cos(x)" "sin(x)\/pow(cos(x),2.0)" "pow(1.0\/cos(x),3.0)+pow(sin(x)\/cos(x),2.0)\/cos(x)"
Cot "cos(x)\/sin(x)" "-1.0\/pow(sin(x),2.0)" "2.0*cos(x)\/pow(sin(x),3.0)"
Pow10 "pow(10.0,x)" "log(10.0)*pow(10.0,x)" "log(10.0)*log(10.0)*pow(10.0,x)"
Abs "fabs(x)" "sign(x)" "0.0"
Pow2 "pow2(x)" "log(2)*pow2(x)" "log(2)*log(2)*pow2(x)"
Log "log(x)" "(1\/x)" "-(1.0\/pow(x,2.0))"